…
load datasets:

```r
guest <- read_csv("https://raw.githubusercontent.com/STAT545-UBC/Classroom/master/data/wedding/attend.csv")
email <- read_csv("https://raw.githubusercontent.com/STAT545-UBC/Classroom/master/data/wedding/emails.csv")
```


```r
guest
```

```
## # A tibble: 30 x 7
##    party name  meal_wedding meal_brunch attendance_wedd… attendance_brun…
##    <dbl> <chr> <chr>        <chr>       <chr>            <chr>           
##  1     1 Somm… PENDING      PENDING     PENDING          PENDING         
##  2     1 Phil… vegetarian   Menu C      CONFIRMED        CONFIRMED       
##  3     1 Blan… chicken      Menu A      CONFIRMED        CONFIRMED       
##  4     1 Emaa… PENDING      PENDING     PENDING          PENDING         
##  5     2 Blai… chicken      Menu C      CONFIRMED        CONFIRMED       
##  6     2 Nige… <NA>         <NA>        CANCELLED        CANCELLED       
##  7     3 Sine… PENDING      PENDING     PENDING          PENDING         
##  8     4 Ayra… vegetarian   Menu B      PENDING          PENDING         
##  9     5 Atla… PENDING      PENDING     PENDING          PENDING         
## 10     5 Denz… fish         Menu B      CONFIRMED        CONFIRMED       
## # … with 20 more rows, and 1 more variable: attendance_golf <chr>
```


```r
email <- email %>%
  rename(name = guest) %>%
  separate_rows(name, sep = ", ")
email
```

```
## # A tibble: 28 x 2
##    name            email              
##    <chr>           <chr>              
##  1 Sommer Medrano  sommm@gmail.com    
##  2 Phillip Medrano sommm@gmail.com    
##  3 Blanka Medrano  sommm@gmail.com    
##  4 Emaan Medrano   sommm@gmail.com    
##  5 Blair Park      bpark@gmail.com    
##  6 Nigel Webb      bpark@gmail.com    
##  7 Sinead English  singlish@hotmail.ca
##  8 Ayra Marks      marksa42@gmail.com 
##  9 Jolene Welsh    jw1987@hotmail.com 
## 10 Hayley Booker   jw1987@hotmail.com 
## # … with 18 more rows
```
…
